{
  "count": 112,
  "next": "https://openmarket.weniv.co.kr/products/?page=2",
  "previous": null,
  "results": [
    {
      "product_id": 309,
      "created_at": "2024-01-29T17:20:34.531481",
      "updated_at": "2024-01-29T17:20:34.531512",
      "product_name": "클래식 카메라",
      "image": "https://openmarket.weniv.co.kr/media/products/2024/01/29/photography-8486085_1280.jpg",
      "price": 149900,
      "shipping_method": "PARCEL",
      "shipping_fee": 3000,
      "stock": 10,
      "product_info": "## 클래식 카메라\r\n\r\n### 필름 포함 \r\n\r\n기본 구성 <br />1. 클래식한 느낌의 카메라<br />\r\n2. 기본 필름 2장 포함<br />\r\n3. 가방 및 청소 도구 포함",
      "seller": 4,
      "store_name": "seller2's store"
    },
    {
      "product_id": 308,
      "created_at": "2024-01-24T17:36:33.041144",
      "updated_at": "2024-01-24T17:36:33.041178",
      "product_name": "드라큘라 마그넷",
      "image": "https://openmarket.weniv.co.kr/media/products/2024/01/24/dracula_vK0fDzq.jpg",
      "price": 7000,
      "shipping_method": "PARCEL",
      "shipping_fee": 2500,
      "stock": 30,
      "product_info": "(TheMusical)드라큘라 마그넷입니다. 활용도 높아요!",
      "seller": 117,
      "store_name": "곰돌샵"
    },
    {
      "product_id": 302,
      "created_at": "2024-01-22T17:07:56.606147",
      "updated_at": "2024-01-22T17:07:56.606178",
      "product_name": "emulsion",
      "image": "https://openmarket.weniv.co.kr/media/products/2024/01/22/%E1%84%89%E1%85%B3%E1%84%8F%E1%85%B3%E1%84%85%E1%85%B5%E1%86%AB%E1%84%89%E1%85%A3%E1%86%BA_2024-01-22_%E1%84%8B%E1%85%A9%E1%84%92%E1%85%AE_5.05.20.png",
      "price": 13000,
      "shipping_method": "PARCEL",
      "shipping_fee": 2500,
      "stock": 30,
      "product_info": "emulsion",
      "seller": 123,
      "store_name": "our"
    },
    {
      "product_id": 300,
      "created_at": "2024-01-22T17:00:44.650947",
      "updated_at": "2024-01-22T17:00:44.650978",
      "product_name": "moisture cream",
      "image": "https://openmarket.weniv.co.kr/media/products/2024/01/22/skin-care-moisture-recipient-on-a-white-rock.jpg",
      "price": 12000,
      "shipping_method": "PARCEL",
      "shipping_fee": 2500,
      "stock": 15,
      "product_info": "moisture cream",
      "seller": 123,
      "store_name": "our"
    },
    {
      "product_id": 299,
      "created_at": "2024-01-22T16:58:36.557284",
      "updated_at": "2024-01-22T16:58:36.557315",
      "product_name": "skin care set",
      "image": "https://openmarket.weniv.co.kr/media/products/2024/01/22/%E1%84%89%E1%85%B3%E1%84%8F%E1%85%B3%E1%84%85%E1%85%B5%E1%86%AB%E1%84%89%E1%85%A3%E1%86%BA_2024-01-22_%E1%84%8B%E1%85%A9%E1%84%92%E1%85%AE_4.57.11.png",
      "price": 28000,
      "shipping_method": "PARCEL",
      "shipping_fee": 2500,
      "stock": 20,
      "product_info": "skin care set",
      "seller": 123,
      "store_name": "our"
    },
    {
      "product_id": 294,
      "created_at": "2024-01-19T10:05:09.463451",
      "updated_at": "2024-01-21T20:03:52.647545",
      "product_name": "몬테크리스토 md",
      "image": "https://openmarket.weniv.co.kr/media/products/2024/01/19/montecristo_EcCTK0I.jpg",
      "price": 17000,
      "shipping_method": "PARCEL",
      "shipping_fee": 2000,
      "stock": 29,
      "product_info": "(TheMusical)뮤지컬 몬테크리스토 굿즈입니다. 품목별 가격 상이합니다.",
      "seller": 117,
      "store_name": "곰돌샵"
    },
    {
      "product_id": 289,
      "created_at": "2024-01-17T14:35:06.641514",
      "updated_at": "2024-01-24T14:34:18.851076",
      "product_name": "마리 퀴리 금속 뱃지",
      "image": "https://openmarket.weniv.co.kr/media/products/2024/01/17/%EB%A7%88%EB%A6%AC%ED%80%B4%EB%A6%ACmd_%EA%B8%88%EC%86%8D%EB%B1%83%EC%A7%80.jpg",
      "price": 8000,
      "shipping_method": "PARCEL",
      "shipping_fee": 2500,
      "stock": 49,
      "product_info": "(TheMusical)금속뱃지",
      "seller": 117,
      "store_name": "곰돌샵"
    },
    {
      "product_id": 288,
      "created_at": "2024-01-17T14:22:03.017309",
      "updated_at": "2024-01-20T10:21:57.181950",
      "product_name": "마리퀴리 보틀",
      "image": "https://openmarket.weniv.co.kr/media/products/2024/01/17/%EB%A7%88%EB%A6%AC%ED%80%B4%EB%A6%ACmd.jpg",
      "price": 10000,
      "shipping_method": "PARCEL",
      "shipping_fee": 10000,
      "stock": 1000,
      "product_info": "(TheMusical)보틀",
      "seller": 117,
      "store_name": "곰돌샵"
    },
    {
      "product_id": 286,
      "created_at": "2024-01-16T16:03:55.765364",
      "updated_at": "2024-01-24T10:19:29.154140",
      "product_name": "레미제라블 가이드북",
      "image": "https://openmarket.weniv.co.kr/media/products/2024/01/16/goods1.jpg",
      "price": 20000,
      "shipping_method": "DELIVERY",
      "shipping_fee": 2500,
      "stock": 29,
      "product_info": "(TheMusical)///",
      "seller": 117,
      "store_name": "곰돌샵"
    },
    {
      "product_id": 281,
      "created_at": "2024-01-10T01:21:13.057023",
      "updated_at": "2024-01-10T01:21:13.057056",
      "product_name": "우드 체어",
      "image": "https://openmarket.weniv.co.kr/media/products/2024/01/10/chair1_Dl2nuc6.jpg",
      "price": 25000,
      "shipping_method": "PARCEL",
      "shipping_fee": 0,
      "stock": 80,
      "product_info": "컴팩트한 디자인의 우드 체어입니다.",
      "seller": 3,
      "store_name": "seller1's store"
    },
    {
      "product_id": 271,
      "created_at": "2023-12-22T08:44:08.572592",
      "updated_at": "2023-12-22T08:44:08.572624",
      "product_name": "화이트 와인 병 데코",
      "image": "https://openmarket.weniv.co.kr/media/products/2023/12/22/IMG_0356.jpeg",
      "price": 30000,
      "shipping_method": "PARCEL",
      "shipping_fee": 0,
      "stock": 5,
      "product_info": "[[\"홈데코\"],[\"데코 병입니다.\"]]",
      "seller": 80,
      "store_name": "Hiho"
    },
    {
      "product_id": 262,
      "created_at": "2023-12-18T15:55:51.109895",
      "updated_at": "2024-01-24T16:16:22.033798",
      "product_name": "위키드 프로그램북",
      "image": "https://openmarket.weniv.co.kr/media/products/2023/12/18/programBook.jpg",
      "price": 25000,
      "shipping_method": "PARCEL",
      "shipping_fee": 3000,
      "stock": 2,
      "product_info": "(TheMusical)북입니다.",
      "seller": 117,
      "store_name": "곰돌샵"
    },
    {
      "product_id": 231,
      "created_at": "2023-11-21T18:01:23.779946",
      "updated_at": "2024-01-10T01:20:25.665213",
      "product_name": "Vegan Lip Butter",
      "image": "https://openmarket.weniv.co.kr/media/products/2023/11/21/melixer.jpeg",
      "price": 13000,
      "shipping_method": "DELIVERY",
      "shipping_fee": 3000,
      "stock": 20,
      "product_info": "촉촉한 입술을 위한 비건 립 버터 (12종 중 택1) 프랑스 EVE VEGAN® 인증을 받은 멜릭서 비건 립 버터",
      "seller": 3,
      "store_name": "seller1's store"
    },
    {
      "product_id": 230,
      "created_at": "2023-11-15T04:56:19.583644",
      "updated_at": "2024-01-19T23:25:06.015748",
      "product_name": "베이직 체어",
      "image": "https://openmarket.weniv.co.kr/media/products/2023/11/15/chair_6cPUyUl.jpg",
      "price": 70000,
      "shipping_method": "DELIVERY",
      "shipping_fee": 3000,
      "stock": 66,
      "product_info": "베이직 색상의 의자입니다.",
      "seller": 4,
      "store_name": "seller2's store"
    },
    {
      "product_id": 228,
      "created_at": "2023-11-14T23:52:35.966612",
      "updated_at": "2024-01-03T22:46:22.726802",
      "product_name": "라운드 우드 체어",
      "image": "https://openmarket.weniv.co.kr/media/products/2023/11/14/chair4.jpg",
      "price": 50000,
      "shipping_method": "PARCEL",
      "shipping_fee": 3000,
      "stock": 44,
      "product_info": "고품질의 라운드 우드 체어입니다.",
      "seller": 58,
      "store_name": "farewell_store"
    }
  ]
}